Final Exam
…
df <- df |> drop_na()
df <- df[df$responsetime>0,]

dim(df)

[1] 1419955       9

My main data frame consists of about 1.4 million rows and 9 relevant columns. I will analyze this data set.

Part 1: Numerical Description

#Plot 1
df |> count(AgencyName,sort=TRUE)

# A tibble: 930 × 2
   AgencyName                                              n
   <chr>                                               <int>
 1 Department of Housing Preservation and Development 490478
 2 New York City Police Department                    223680
 3 Department of Transportation                       195916
 4 Department of Environmental Protection             144745
 5 Department of Buildings                             71477
 6 Department of Parks and Recreation                  68491
 7 Department of Health and Mental Hygiene             32113
 8 Department of Consumer Affairs                      22815
 9 Taxi and Limousine Commission                       22628
10 Department of Sanitation                            12182
# … with 920 more rows
…
#Plot 3
with(df, table(Borough))

Borough
        BRONX      BROOKLYN     MANHATTAN        QUEENS STATEN ISLAND 
       210223        402866        266052        322807         72093 
  Unspecified 
       145914 

This table shows the number of complaints by Borough in the data set. Brooklyn is the Borough that has the most complaints and Staten Island has the least.

#Plot 4
df |> count(ComplaintType,sort=TRUE)

# A tibble: 195 × 2
   ComplaintType             n
   <chr>                 <int>
 1 HEATING              122288
 2 GENERAL CONSTRUCTION  94652
 3 Street Condition      83976
 4 PLUMBING              81877
 5 Blocked Driveway      69442
 6 PAINT - PLASTER       63547
 7 Water System          55463
 8 NONCONST              48623
 9 Illegal Parking       47122
10 Sewer                 37909
# … with 185 more rows
…
